//OPEORG
///GROUP 1,127,0,0,0,1,0,0
///ORGPOS
0,0
0,0,0,0
0,0,0,0
0,0
0,0,0,0
0,0,0,0
0,0
0,0,0,0
0,0,0,0
0,0
0,0,0,0
0,0,0,0
///ORGSPD
50.00,0.00,0.00,0.00
///CUBE64
0,0,0
0,0,0,0,0,0,0,0
0,0,0,0,0,0,0,0
